Practical 2 - Question 10
…
txhousing %>%
  group_by(city) %>%
  summarise(sum = sum(listings, na.rm = T)) %>%
  arrange(desc(sum))

## # A tibble: 46 x 2
##    city                  sum
##    <chr>               <dbl>
##  1 Houston           5491834
##  2 Dallas            4052774
##  3 San Antonio       1768445
##  4 Austin            1626229
##  5 Collin County      881379
##  6 Fort Worth         751320
##  7 Fort Bend          651650
##  8 Montgomery County  610515
##  9 NE Tarrant County  560029
## 10 Bay Area           557853
## # ... with 36 more rows
…
